<?xml version="1.0" encoding="utf-8"?>
<!-- Generator: Adobe Illustrator 24.2.0, SVG Export Plug-In . SVG Version: 6.00 Build 0)  -->
<svg version="1.1" id="Слой_1" xmlns="http://www.w3.org/2000/svg" xmlns:xlink="http://www.w3.org/1999/xlink" x="0px" y="0px"
	 viewBox="0 0 16 25" style="enable-background:new 0 0 16 25;" xml:space="preserve">
<g>
	<path d="M15.5,2c0,0.9-0.7,1.5-1.5,1.5h-2.8L7.8,21.4H10c0.8,0,1.5,0.7,1.5,1.5c0,0.9-0.7,1.5-1.5,1.5H2c-0.8,0-1.5-0.7-1.5-1.5
		c0-0.9,0.7-1.5,1.5-1.5h2.8L8.2,3.6H6C5.2,3.6,4.5,2.9,4.5,2c0-0.9,0.7-1.5,1.5-1.5h8C14.8,0.5,15.5,1.2,15.5,2z"/>
</g>
</svg>
